A Robust Interface to ArcGIS Geocode Services • arcgisgeocode
…
geocoded <- to_geocode |>
  dplyr::reframe(
    geocode_addresses(
      address = address,
      city = city,
      region = state,
      postal = zip
    )
  )

geocoded
#> # A tibble: 120 × 59
#>    loc_name status score match_addr  long_label short_label addr_type type_field
#>    <chr>    <chr>  <dbl> <chr>       <chr>      <chr>       <chr>     <chr>     
#>  1 World    M      100   500 L'Enfa… 500 L'Enf… 500 L'Enfa… PointAdd… <NA>      
#>  2 World    M      100   200 K St N… 200 K St … 200 K St NE PointAdd… <NA>      
#>  3 World    M      100   500 L'Enfa… 500 L'Enf… 500 L'Enfa… PointAdd… <NA>      
#>  4 World    M      100   200 K St N… 200 K St … 200 K St NE PointAdd… <NA>      
#>  5 World    M      100   2197 Pluml… 2197 Plum… 2197 Pluml… PointAdd… <NA>      
#>  6 World    U        0   <NA>        <NA>       <NA>        <NA>      <NA>      
#>  7 World    M       97.9 2197 Pluml… 2197 Plum… 2197 Pluml… PointAdd… <NA>      
#>  8 World    M       97.0 5034 Curti… 5034 Curt… 5034 Curti… PointAdd… <NA>      
#>  9 World    M       97.0 5034 Curti… 5034 Curt… 5034 Curti… PointAdd… <NA>      
#> 10 World    U        0   <NA>        <NA>       <NA>        <NA>      <NA>      
#> # ℹ 110 more rows
#> # ℹ 51 more variables: place_name <chr>, place_addr <chr>, phone <chr>,
#> #   url <chr>, rank <dbl>, add_bldg <chr>, add_num <chr>, add_num_from <chr>,
#> #   add_num_to <chr>, add_range <chr>, side <chr>, st_pre_dir <chr>,
#> #   st_pre_type <chr>, st_name <chr>, st_type <chr>, st_dir <chr>,
#> #   bldg_type <chr>, bldg_name <chr>, level_type <chr>, level_name <chr>,
#> #   unit_type <chr>, unit_name <chr>, sub_addr <chr>, st_addr <chr>, …
…
