…
geocoded <- to_geocode |>
  dplyr::reframe(
    geocode_addresses(
      address = address,
      city = city,
      region = state,
      postal = zip
    )
  )

geocoded
#> # A tibble: 120 × 59
#>    loc_name status score match_addr     long_label short_label addr_type
#>    <chr>    <chr>  <dbl> <chr>          <chr>      <chr>       <chr>    
#>  1 World    M      100   500 L'Enfant … 500 L'Enf… 500 L'Enfa… PointAdd…
#>  2 World    M      100   200 K St NE, … 200 K St … 200 K St NE PointAdd…
#>  3 World    M      100   500 L'Enfant … 500 L'Enf… 500 L'Enfa… PointAdd…
#>  4 World    M      100   2197 Plumleig… 2197 Plum… 2197 Pluml… PointAdd…
#>  5 World    U        0   <NA>           <NA>       <NA>        <NA>     
#>  6 World    M       97.9 2197 Plumleig… 2197 Plum… 2197 Pluml… PointAdd…
#>  7 World    M      100   200 K St NE, … 200 K St … 200 K St NE PointAdd…
#>  8 World    M       97.0 5034 Curtis S… 5034 Curt… 5034 Curti… PointAdd…
#>  9 World    M       97.0 5034 Curtis S… 5034 Curt… 5034 Curti… PointAdd…
#> 10 World    U        0   <NA>           <NA>       <NA>        <NA>     
#> # ℹ 110 more rows
#> # ℹ 52 more variables: type_field <chr>, place_name <chr>,
#> #   place_addr <chr>, phone <chr>, url <chr>, rank <dbl>,
#> #   add_bldg <chr>, add_num <chr>, add_num_from <chr>,
#> #   add_num_to <chr>, add_range <chr>, side <chr>, st_pre_dir <chr>,
#> #   st_pre_type <chr>, st_name <chr>, st_type <chr>, st_dir <chr>,
#> #   bldg_type <chr>, bldg_name <chr>, level_type <chr>, …
```
…
